id_barang,nama_barang,harga_barang,stok
30,Barang Baru 2,1000,10
31,Barang Baru 3,2000,20
32,Barang Baru 4,3000,30
33,Barang Baru 5,4000,40
34,Barang Baru 6,5000,50
35,Barang Baru 7,6000,60
36,Barang Baru 8,7000,70
37,Barang Baru 9,8000,80
38,Barang Baru 10,9000,90
39,Barang Baru 11,10000,100